#
# There is insufficient memory for the Java Runtime Environment to continue.
# Native memory allocation (malloc) failed to allocate 74973184 bytes for committing reserved memory.
# Possible reasons:
#   The system is out of physical RAM or swap space
#   In 32 bit mode, the process size limit was hit
# Possible solutions:
#   Reduce memory load on the system
#   Increase physical memory or swap space
#   Check if swap backing store is full
#   Use 64 bit Java on a 64 bit OS
#   Decrease Java heap size (-Xmx/-Xms)
#   Decrease number of Java threads
#   Decrease Java thread stack sizes (-Xss)
#   Set larger code cache with -XX:ReservedCodeCacheSize=
# This output file may be truncated or incomplete.
#
#  Out of Memory Error (os_linux.cpp:2827), pid=7609, tid=139638451181312
#
# JRE version: OpenJDK Runtime Environment (7.0_91-b02) (build 1.7.0_91-b02)
# Java VM: OpenJDK 64-Bit Server VM (24.91-b01 mixed mode linux-amd64 compressed oops)
# Derivative: IcedTea 2.6.3
# Distribution: Ubuntu 14.04 LTS, package 7u91-2.6.3-0ubuntu0.14.04.1
# Failed to write core dump. Core dumps have been disabled. To enable core dumping, try "ulimit -c unlimited" before starting Java again
#

---------------  T H R E A D  ---------------

Current thread (0x00007f0018077000):  VMThread [stack: 0x00007f001c379000,0x00007f001c47a000] [id=7620]

Stack: [0x00007f001c379000,0x00007f001c47a000],  sp=0x00007f001c478490,  free space=1021k
Native frames: (J=compiled Java code, j=interpreted, Vv=VM code, C=native code)
V  [libjvm.so+0x953e15]  VMError::report_and_die()+0x175
V  [libjvm.so+0x48fd94]  report_vm_out_of_memory(char const*, int, unsigned long, char const*)+0x74
V  [libjvm.so+0x7cf87b]  os::pd_commit_memory(char*, unsigned long, unsigned long, bool)+0xeb
V  [libjvm.so+0x7ca33f]  os::commit_memory(char*, unsigned long, unsigned long, bool)+0x1f
V  [libjvm.so+0x83dacb]  PSVirtualSpace::expand_by(unsigned long)+0x5b
V  [libjvm.so+0x83e930]  PSYoungGen::resize_generation(unsigned long, unsigned long)+0xb0
V  [libjvm.so+0x83f01b]  PSYoungGen::resize(unsigned long, unsigned long)+0x1b
V  [libjvm.so+0x83b258]  PSScavenge::invoke_no_policy()+0xd68
V  [libjvm.so+0x83bac8]  PSScavenge::invoke()+0x38
V  [libjvm.so+0x7f2083]  ParallelScavengeHeap::failed_mem_allocate(unsigned long)+0x63
V  [libjvm.so+0x955814]  VM_ParallelGCFailedAllocation::doit()+0x84
V  [libjvm.so+0x959917]  VM_Operation::evaluate()+0x47
V  [libjvm.so+0x9583d8]  VMThread::evaluate_operation(VM_Operation*)+0x318
V  [libjvm.so+0x958839]  VMThread::loop()+0x219
V  [libjvm.so+0x958c82]  VMThread::run()+0x72
V  [libjvm.so+0x7cc742]  java_start(Thread*)+0xf2

VM_Operation (0x00007f002163b520): ParallelGCFailedAllocation, mode: safepoint, requested by thread 0x00007f001800b800


---------------  P R O C E S S  ---------------

Java Threads: ( => current thread )
  0x00007f00180b0800 JavaThread "Service Thread" daemon [_thread_blocked, id=7626, stack(0x00007f00120eb000,0x00007f00121ec000)]
  0x00007f00180ae000 JavaThread "C2 CompilerThread1" daemon [_thread_blocked, id=7625, stack(0x00007f00121ec000,0x00007f00122ed000)]
  0x00007f00180ab800 JavaThread "C2 CompilerThread0" daemon [_thread_blocked, id=7624, stack(0x00007f00122ed000,0x00007f00123ee000)]
  0x00007f00180a9800 JavaThread "Signal Dispatcher" daemon [_thread_blocked, id=7623, stack(0x00007f001c076000,0x00007f001c177000)]
  0x00007f001807d800 JavaThread "Finalizer" daemon [_thread_blocked, id=7622, stack(0x00007f001c177000,0x00007f001c278000)]
  0x00007f001807b800 JavaThread "Reference Handler" daemon [_thread_blocked, id=7621, stack(0x00007f001c278000,0x00007f001c379000)]
  0x00007f001800b800 JavaThread "main" [_thread_blocked, id=7615, stack(0x00007f002153c000,0x00007f002163d000)]

Other Threads:
=>0x00007f0018077000 VMThread [stack: 0x00007f001c379000,0x00007f001c47a000] [id=7620]
  0x00007f00180bb800 WatcherThread [stack: 0x00007f0011fea000,0x00007f00120eb000] [id=7627]

VM state:at safepoint (normal execution)

VM Mutex/Monitor currently owned by a thread:  ([mutex/lock_event])
[0x00007f0018007da0] Threads_lock - owner thread: 0x00007f0018077000
[0x00007f00180082a0] Heap_lock - owner thread: 0x00007f001800b800

Heap
 PSYoungGen      total 139776K, used 8766K [0x00000000eaa80000, 0x00000000f4280000, 0x0000000100000000)
  eden space 124928K, 0% used [0x00000000eaa80000,0x00000000eaa80000,0x00000000f2480000)
  from space 14848K, 59% used [0x00000000f2480000,0x00000000f2d0f810,0x00000000f3300000)
  to   space 13824K, 0% used [0x00000000f3300000,0x00000000f3300000,0x00000000f4080000)
 ParOldGen       total 40960K, used 28435K [0x00000000c0000000, 0x00000000c2800000, 0x00000000eaa80000)
  object space 40960K, 69% used [0x00000000c0000000,0x00000000c1bc4e88,0x00000000c2800000)
 PSPermGen       total 21504K, used 7695K [0x00000000b5a00000, 0x00000000b6f00000, 0x00000000c0000000)
  object space 21504K, 35% used [0x00000000b5a00000,0x00000000b6183c08,0x00000000b6f00000)

Card table byte_map: [0x00007f001df22000,0x00007f001e176000] byte_map_base: 0x00007f001d975000

Polling page: 0x00007f002165f000

Code Cache  [0x00007f0015000000, 0x00007f00153d0000, 0x00007f0018000000)
 total_blobs=1450 nmethods=1196 adapters=207 free_code_cache=45339Kb largest_free_block=46377536

Compilation events (10 events):
Event: 8.319 Thread 0x00007f00180ab800 1212             com.android.dx.io.instructions.InstructionCodec$11::decode (38 bytes)
Event: 8.321 Thread 0x00007f00180ab800 nmethod 1212 0x00007f00153c0ad0 code [0x00007f00153c0c20, 0x00007f00153c0e18]
Event: 8.321 Thread 0x00007f00180ab800 1213             com.android.dx.io.instructions.InstructionCodec$11::encode (22 bytes)
Event: 8.322 Thread 0x00007f00180ae000 nmethod 1211 0x00007f00153bc790 code [0x00007f00153bc960, 0x00007f00153bcd90]
Event: 8.323 Thread 0x00007f00180ab800 nmethod 1213 0x00007f00153ba7d0 code [0x00007f00153ba940, 0x00007f00153bab78]
Event: 8.417 Thread 0x00007f00180ae000 1214             com.android.dx.merge.DexMerger::transformClassDef (160 bytes)
Event: 8.418 Thread 0x00007f00180ab800 1215             com.android.dx.merge.IndexMap::adjustAnnotationDirectory (18 bytes)
Event: 8.421 Thread 0x00007f00180ab800 nmethod 1215 0x00007f00153c2050 code [0x00007f00153c21e0, 0x00007f00153c24f8]
Event: 8.421 Thread 0x00007f00180ab800 1216             com.android.dx.merge.IndexMap::adjustStaticValues (18 bytes)
Event: 8.425 Thread 0x00007f00180ab800 nmethod 1216 0x00007f00153c1790 code [0x00007f00153c1920, 0x00007f00153c1c38]

GC Heap History (10 events):
Event: 2.348 GC heap after
Heap after GC invocations=4 (full 0):
 PSYoungGen      total 34304K, used 2546K [0x00000000eaa80000, 0x00000000ece80000, 0x0000000100000000)
  eden space 31744K, 0% used [0x00000000eaa80000,0x00000000eaa80000,0x00000000ec980000)
  from space 2560K, 99% used [0x00000000ecc00000,0x00000000ece7cab8,0x00000000ece80000)
  to   space 2560K, 0% used [0x00000000ec980000,0x00000000ec980000,0x00000000ecc00000)
 ParOldGen       total 40960K, used 12128K [0x00000000c0000000, 0x00000000c2800000, 0x00000000eaa80000)
  object space 40960K, 29% used [0x00000000c0000000,0x00000000c0bd8120,0x00000000c2800000)
 PSPermGen       total 21504K, used 5590K [0x00000000b5a00000, 0x00000000b6f00000, 0x00000000c0000000)
  object space 21504K, 25% used [0x00000000b5a00000,0x00000000b5f75988,0x00000000b6f00000)
}
Event: 2.926 GC heap before
{Heap before GC invocations=5 (full 0):
 PSYoungGen      total 34304K, used 34290K [0x00000000eaa80000, 0x00000000ece80000, 0x0000000100000000)
  eden space 31744K, 100% used [0x00000000eaa80000,0x00000000ec980000,0x00000000ec980000)
  from space 2560K, 99% used [0x00000000ecc00000,0x00000000ece7cab8,0x00000000ece80000)
  to   space 2560K, 0% used [0x00000000ec980000,0x00000000ec980000,0x00000000ecc00000)
 ParOldGen       total 40960K, used 12128K [0x00000000c0000000, 0x00000000c2800000, 0x00000000eaa80000)
  object space 40960K, 29% used [0x00000000c0000000,0x00000000c0bd8120,0x00000000c2800000)
 PSPermGen       total 21504K, used 5621K [0x00000000b5a00000, 0x00000000b6f00000, 0x00000000c0000000)
  object space 21504K, 26% used [0x00000000b5a00000,0x00000000b5f7d5b0,0x00000000b6f00000)
Event: 2.942 GC heap after
Heap after GC invocations=5 (full 0):
 PSYoungGen      total 34304K, used 2534K [0x00000000eaa80000, 0x00000000ef880000, 0x0000000100000000)
  eden space 31744K, 0% used [0x00000000eaa80000,0x00000000eaa80000,0x00000000ec980000)
  from space 2560K, 98% used [0x00000000ec980000,0x00000000ecbf98c0,0x00000000ecc00000)
  to   space 8192K, 0% used [0x00000000ef080000,0x00000000ef080000,0x00000000ef880000)
 ParOldGen       total 40960K, used 17001K [0x00000000c0000000, 0x00000000c2800000, 0x00000000eaa80000)
  object space 40960K, 41% used [0x00000000c0000000,0x00000000c109a548,0x00000000c2800000)
 PSPermGen       total 21504K, used 5621K [0x00000000b5a00000, 0x00000000b6f00000, 0x00000000c0000000)
  object space 21504K, 26% used [0x00000000b5a00000,0x00000000b5f7d5b0,0x00000000b6f00000)
}
Event: 3.475 GC heap before
{Heap before GC invocations=6 (full 0):
 PSYoungGen      total 34304K, used 34278K [0x00000000eaa80000, 0x00000000ef880000, 0x0000000100000000)
  eden space 31744K, 100% used [0x00000000eaa80000,0x00000000ec980000,0x00000000ec980000)
  from space 2560K, 98% used [0x00000000ec980000,0x00000000ecbf98c0,0x00000000ecc00000)
  to   space 8192K, 0% used [0x00000000ef080000,0x00000000ef080000,0x00000000ef880000)
 ParOldGen       total 40960K, used 17001K [0x00000000c0000000, 0x00000000c2800000, 0x00000000eaa80000)
  object space 40960K, 41% used [0x00000000c0000000,0x00000000c109a548,0x00000000c2800000)
 PSPermGen       total 21504K, used 5646K [0x00000000b5a00000, 0x00000000b6f00000, 0x00000000c0000000)
  object space 21504K, 26% used [0x00000000b5a00000,0x00000000b5f839f0,0x00000000b6f00000)
Event: 3.491 GC heap after
Heap after GC invocations=6 (full 0):
 PSYoungGen      total 71168K, used 7665K [0x00000000eaa80000, 0x00000000ef980000, 0x0000000100000000)
  eden space 62976K, 0% used [0x00000000eaa80000,0x00000000eaa80000,0x00000000ee800000)
  from space 8192K, 93% used [0x00000000ef080000,0x00000000ef7fc6b0,0x00000000ef880000)
  to   space 8704K, 0% used [0x00000000ee800000,0x00000000ee800000,0x00000000ef080000)
 ParOldGen       total 40960K, used 17001K [0x00000000c0000000, 0x00000000c2800000, 0x00000000eaa80000)
  object space 40960K, 41% used [0x00000000c0000000,0x00000000c109a548,0x00000000c2800000)
 PSPermGen       total 21504K, used 5646K [0x00000000b5a00000, 0x00000000b6f00000, 0x00000000c0000000)
  object space 21504K, 26% used [0x00000000b5a00000,0x00000000b5f839f0,0x00000000b6f00000)
}
Event: 7.316 GC heap before
{Heap before GC invocations=7 (full 0):
 PSYoungGen      total 71168K, used 69970K [0x00000000eaa80000, 0x00000000ef980000, 0x0000000100000000)
  eden space 62976K, 98% used [0x00000000eaa80000,0x00000000ee7583f8,0x00000000ee800000)
  from space 8192K, 93% used [0x00000000ef080000,0x00000000ef7fc6b0,0x00000000ef880000)
  to   space 8704K, 0% used [0x00000000ee800000,0x00000000ee800000,0x00000000ef080000)
 ParOldGen       total 40960K, used 17001K [0x00000000c0000000, 0x00000000c2800000, 0x00000000eaa80000)
  object space 40960K, 41% used [0x00000000c0000000,0x00000000c109a548,0x00000000c2800000)
 PSPermGen       total 21504K, used 7514K [0x00000000b5a00000, 0x00000000b6f00000, 0x00000000c0000000)
  object space 21504K, 34% used [0x00000000b5a00000,0x00000000b6156808,0x00000000b6f00000)
Event: 7.338 GC heap after
Heap after GC invocations=7 (full 0):
 PSYoungGen      total 71680K, used 8700K [0x00000000eaa80000, 0x00000000f4080000, 0x0000000100000000)
  eden space 62976K, 0% used [0x00000000eaa80000,0x00000000eaa80000,0x00000000ee800000)
  from space 8704K, 99% used [0x00000000ee800000,0x00000000ef07f128,0x00000000ef080000)
  to   space 13824K, 0% used [0x00000000f3300000,0x00000000f3300000,0x00000000f4080000)
 ParOldGen       total 40960K, used 25535K [0x00000000c0000000, 0x00000000c2800000, 0x00000000eaa80000)
  object space 40960K, 62% used [0x00000000c0000000,0x00000000c18efd90,0x00000000c2800000)
 PSPermGen       total 21504K, used 7514K [0x00000000b5a00000, 0x00000000b6f00000, 0x00000000c0000000)
  object space 21504K, 34% used [0x00000000b5a00000,0x00000000b6156808,0x00000000b6f00000)
}
Event: 7.777 GC heap before
{Heap before GC invocations=8 (full 0):
 PSYoungGen      total 71680K, used 71416K [0x00000000eaa80000, 0x00000000f4080000, 0x0000000100000000)
  eden space 62976K, 99% used [0x00000000eaa80000,0x00000000ee7bf240,0x00000000ee800000)
  from space 8704K, 99% used [0x00000000ee800000,0x00000000ef07f128,0x00000000ef080000)
  to   space 13824K, 0% used [0x00000000f3300000,0x00000000f3300000,0x00000000f4080000)
 ParOldGen       total 40960K, used 25535K [0x00000000c0000000, 0x00000000c2800000, 0x00000000eaa80000)
  object space 40960K, 62% used [0x00000000c0000000,0x00000000c18efd90,0x00000000c2800000)
 PSPermGen       total 21504K, used 7584K [0x00000000b5a00000, 0x00000000b6f00000, 0x00000000c0000000)
  object space 21504K, 35% used [0x00000000b5a00000,0x00000000b6168120,0x00000000b6f00000)
Event: 7.789 GC heap after
Heap after GC invocations=8 (full 0):
 PSYoungGen      total 138752K, used 11322K [0x00000000eaa80000, 0x00000000f4280000, 0x0000000100000000)
  eden space 124928K, 0% used [0x00000000eaa80000,0x00000000eaa80000,0x00000000f2480000)
  from space 13824K, 81% used [0x00000000f3300000,0x00000000f3e0eb60,0x00000000f4080000)
  to   space 14848K, 0% used [0x00000000f2480000,0x00000000f2480000,0x00000000f3300000)
 ParOldGen       total 40960K, used 26032K [0x00000000c0000000, 0x00000000c2800000, 0x00000000eaa80000)
  object space 40960K, 63% used [0x00000000c0000000,0x00000000c196c2d0,0x00000000c2800000)
 PSPermGen       total 21504K, used 7584K [0x00000000b5a00000, 0x00000000b6f00000, 0x00000000c0000000)
  object space 21504K, 35% used [0x00000000b5a00000,0x00000000b6168120,0x00000000b6f00000)
}
Event: 8.438 GC heap before
{Heap before GC invocations=9 (full 0):
 PSYoungGen      total 138752K, used 135927K [0x00000000eaa80000, 0x00000000f4280000, 0x0000000100000000)
  eden space 124928K, 99% used [0x00000000eaa80000,0x00000000f242f3a8,0x00000000f2480000)
  from space 13824K, 81% used [0x00000000f3300000,0x00000000f3e0eb60,0x00000000f4080000)
  to   space 14848K, 0% used [0x00000000f2480000,0x00000000f2480000,0x00000000f3300000)
 ParOldGen       total 40960K, used 26032K [0x00000000c0000000, 0x00000000c2800000, 0x00000000eaa80000)
  object space 40960K, 63% used [0x00000000c0000000,0x00000000c196c2d0,0x00000000c2800000)
 PSPermGen       total 21504K, used 7695K [0x00000000b5a00000, 0x00000000b6f00000, 0x00000000c0000000)
  object space 21504K, 35% used [0x00000000b5a00000,0x00000000b6183c08,0x00000000b6f00000)

Deoptimization events (10 events):
Event: 7.975 Thread 0x00007f001800b800 Uncommon trap: reason=array_check action=maybe_recompile pc=0x00007f0015076dd0 method=java.util.ComparableTimSort.binarySort([Ljava/lang/Object;III)V @ 193
Event: 7.992 Thread 0x00007f001800b800 Uncommon trap: reason=predicate action=maybe_recompile pc=0x00007f0015380050 method=java.util.TimSort.binarySort([Ljava/lang/Object;IIILjava/util/Comparator;)V @ 37
Event: 8.114 Thread 0x00007f001800b800 Uncommon trap: reason=array_check action=maybe_recompile pc=0x00007f0015076dd0 method=java.util.ComparableTimSort.binarySort([Ljava/lang/Object;III)V @ 193
Event: 8.172 Thread 0x00007f001800b800 Uncommon trap: reason=array_check action=maybe_recompile pc=0x00007f0015392ff8 method=java.util.TimSort.binarySort([Ljava/lang/Object;IIILjava/util/Comparator;)V @ 215
Event: 8.172 Thread 0x00007f001800b800 Uncommon trap: reason=array_check action=maybe_recompile pc=0x00007f00153931e4 method=java.util.TimSort.binarySort([Ljava/lang/Object;IIILjava/util/Comparator;)V @ 183
Event: 8.172 Thread 0x00007f001800b800 Uncommon trap: reason=array_check action=maybe_recompile pc=0x00007f00153931e4 method=java.util.TimSort.binarySort([Ljava/lang/Object;IIILjava/util/Comparator;)V @ 183
Event: 8.172 Thread 0x00007f001800b800 Uncommon trap: reason=array_check action=maybe_recompile pc=0x00007f00153930fc method=java.util.TimSort.binarySort([Ljava/lang/Object;IIILjava/util/Comparator;)V @ 193
Event: 8.172 Thread 0x00007f001800b800 Uncommon trap: reason=array_check action=maybe_recompile pc=0x00007f00153931e4 method=java.util.TimSort.binarySort([Ljava/lang/Object;IIILjava/util/Comparator;)V @ 183
Event: 8.212 Thread 0x00007f001800b800 Uncommon trap: reason=array_check action=maybe_recompile pc=0x00007f00153a8124 method=java.util.ComparableTimSort.binarySort([Ljava/lang/Object;III)V @ 215
Event: 8.438 Thread 0x00007f001800b800 Uncommon trap: reason=array_check action=maybe_recompile pc=0x00007f00153a8124 method=java.util.ComparableTimSort.binarySort([Ljava/lang/Object;III)V @ 215

Internal exceptions (10 events):
Event: 7.040 Thread 0x00007f001800b800 Threw 0x00000000edf29d98 at /build/openjdk-7-zaTxYK/openjdk-7-7u91-2.6.3/build/openjdk/hotspot/src/share/vm/prims/jvm.cpp:1322
Event: 7.040 Thread 0x00007f001800b800 Threw 0x00000000edf2da30 at /build/openjdk-7-zaTxYK/openjdk-7-7u91-2.6.3/build/openjdk/hotspot/src/share/vm/prims/jvm.cpp:1322
Event: 7.041 Thread 0x00007f001800b800 Threw 0x00000000edf31818 at /build/openjdk-7-zaTxYK/openjdk-7-7u91-2.6.3/build/openjdk/hotspot/src/share/vm/prims/jvm.cpp:1322
Event: 7.042 Thread 0x00007f001800b800 Threw 0x00000000edf37800 at /build/openjdk-7-zaTxYK/openjdk-7-7u91-2.6.3/build/openjdk/hotspot/src/share/vm/prims/jvm.cpp:1322
Event: 7.043 Thread 0x00007f001800b800 Threw 0x00000000edf3b318 at /build/openjdk-7-zaTxYK/openjdk-7-7u91-2.6.3/build/openjdk/hotspot/src/share/vm/prims/jvm.cpp:1322
Event: 7.043 Thread 0x00007f001800b800 Threw 0x00000000edf3f028 at /build/openjdk-7-zaTxYK/openjdk-7-7u91-2.6.3/build/openjdk/hotspot/src/share/vm/prims/jvm.cpp:1322
Event: 7.044 Thread 0x00007f001800b800 Threw 0x00000000edf42aa8 at /build/openjdk-7-zaTxYK/openjdk-7-7u91-2.6.3/build/openjdk/hotspot/src/share/vm/prims/jvm.cpp:1322
Event: 7.047 Thread 0x00007f001800b800 Threw 0x00000000edf4a568 at /build/openjdk-7-zaTxYK/openjdk-7-7u91-2.6.3/build/openjdk/hotspot/src/share/vm/prims/jvm.cpp:1322
Event: 7.048 Thread 0x00007f001800b800 Threw 0x00000000edf4d128 at /build/openjdk-7-zaTxYK/openjdk-7-7u91-2.6.3/build/openjdk/hotspot/src/share/vm/prims/jvm.cpp:1322
Event: 7.498 Thread 0x00007f001800b800 Threw 0x00000000ebc4a020 at /build/openjdk-7-zaTxYK/openjdk-7-7u91-2.6.3/build/openjdk/hotspot/src/share/vm/prims/jvm.cpp:1322

Events (10 events):
Event: 8.172 Thread 0x00007f001800b800 Uncommon trap: trap_request=0xffffffd6 fr.pc=0x00007f00153931e4
Event: 8.172 Thread 0x00007f001800b800 DEOPT PACKING pc=0x00007f00153931e4 sp=0x00007f002163b4c0
Event: 8.172 Thread 0x00007f001800b800 DEOPT UNPACKING pc=0x00007f0015039445 sp=0x00007f002163b488 mode 2
Event: 8.212 Thread 0x00007f001800b800 Uncommon trap: trap_request=0xffffffd6 fr.pc=0x00007f00153a8124
Event: 8.212 Thread 0x00007f001800b800 DEOPT PACKING pc=0x00007f00153a8124 sp=0x00007f002163b450
Event: 8.212 Thread 0x00007f001800b800 DEOPT UNPACKING pc=0x00007f0015039445 sp=0x00007f002163b418 mode 2
Event: 8.438 Thread 0x00007f001800b800 Uncommon trap: trap_request=0xffffffd6 fr.pc=0x00007f00153a8124
Event: 8.438 Thread 0x00007f001800b800 DEOPT PACKING pc=0x00007f00153a8124 sp=0x00007f002163b450
Event: 8.438 Thread 0x00007f001800b800 DEOPT UNPACKING pc=0x00007f0015039445 sp=0x00007f002163b418 mode 2
Event: 8.438 Executing VM operation: ParallelGCFailedAllocation


Dynamic libraries:
00400000-00401000 r-xp 00000000 08:07 3148986                            /usr/lib/jvm/java-7-openjdk-amd64/jre/bin/java
00600000-00601000 r--p 00000000 08:07 3148986                            /usr/lib/jvm/java-7-openjdk-amd64/jre/bin/java
00601000-00602000 rw-p 00001000 08:07 3148986                            /usr/lib/jvm/java-7-openjdk-amd64/jre/bin/java
01fe5000-02006000 rw-p 00000000 00:00 0                                  [heap]
b5a00000-b6f00000 rw-p 00000000 00:00 0 
b6f00000-c0000000 rw-p 00000000 00:00 0 
c0000000-c2800000 rw-p 00000000 00:00 0 
c2800000-eaa80000 rw-p 00000000 00:00 0 
eaa80000-f4280000 rw-p 00000000 00:00 0 
f8a00000-100000000 rw-p 00000000 00:00 0 
7effc4000000-7effc4023000 rw-p 00000000 00:00 0 
7effc4023000-7effc8000000 ---p 00000000 00:00 0 
7effcc000000-7effcc022000 rw-p 00000000 00:00 0 
7effcc022000-7effd0000000 ---p 00000000 00:00 0 
7effd0000000-7effd0042000 rw-p 00000000 00:00 0 
7effd0042000-7effd4000000 ---p 00000000 00:00 0 
7effd4000000-7effd4032000 rw-p 00000000 00:00 0 
7effd4032000-7effd8000000 ---p 00000000 00:00 0 
7effd8000000-7effd8021000 rw-p 00000000 00:00 0 
7effd8021000-7effdc000000 ---p 00000000 00:00 0 
7effdc000000-7effdc021000 rw-p 00000000 00:00 0 
7effdc021000-7effe0000000 ---p 00000000 00:00 0 
7effe0000000-7effe0021000 rw-p 00000000 00:00 0 
7effe0021000-7effe4000000 ---p 00000000 00:00 0 
7effe4000000-7effe55e7000 rw-p 00000000 00:00 0 
7effe55e7000-7effe8000000 ---p 00000000 00:00 0 
7effe8000000-7effe9840000 rw-p 00000000 00:00 0 
7effe9840000-7effec000000 ---p 00000000 00:00 0 
7effec000000-7effec021000 rw-p 00000000 00:00 0 
7effec021000-7efff0000000 ---p 00000000 00:00 0 
7efff0000000-7efff0021000 rw-p 00000000 00:00 0 
7efff0021000-7efff4000000 ---p 00000000 00:00 0 
7efff4000000-7efff4242000 rw-p 00000000 00:00 0 
7efff4242000-7efff8000000 ---p 00000000 00:00 0 
7efff8000000-7efff8021000 rw-p 00000000 00:00 0 
7efff8021000-7efffc000000 ---p 00000000 00:00 0 
7efffc000000-7efffc021000 rw-p 00000000 00:00 0 
7efffc021000-7f0000000000 ---p 00000000 00:00 0 
7f0004000000-7f0004021000 rw-p 00000000 00:00 0 
7f0004021000-7f0008000000 ---p 00000000 00:00 0 
7f0008000000-7f0008021000 rw-p 00000000 00:00 0 
7f0008021000-7f000c000000 ---p 00000000 00:00 0 
7f000c000000-7f000c021000 rw-p 00000000 00:00 0 
7f000c021000-7f0010000000 ---p 00000000 00:00 0 
7f0010367000-7f00103a4000 r-xp 00000000 08:07 4198346                    /lib/x86_64-linux-gnu/libpcre.so.3.13.1
7f00103a4000-7f00105a3000 ---p 0003d000 08:07 4198346                    /lib/x86_64-linux-gnu/libpcre.so.3.13.1
7f00105a3000-7f00105a4000 r--p 0003c000 08:07 4198346                    /lib/x86_64-linux-gnu/libpcre.so.3.13.1
7f00105a4000-7f00105a5000 rw-p 0003d000 08:07 4198346                    /lib/x86_64-linux-gnu/libpcre.so.3.13.1
7f00105a5000-7f00105ac000 r-xp 00000000 08:07 1071226                    /usr/lib/x86_64-linux-gnu/libffi.so.6.0.1
7f00105ac000-7f00107ab000 ---p 00007000 08:07 1071226                    /usr/lib/x86_64-linux-gnu/libffi.so.6.0.1
7f00107ab000-7f00107ac000 r--p 00006000 08:07 1071226                    /usr/lib/x86_64-linux-gnu/libffi.so.6.0.1
7f00107ac000-7f00107ad000 rw-p 00007000 08:07 1071226                    /usr/lib/x86_64-linux-gnu/libffi.so.6.0.1
7f00107ad000-7f00107c4000 r-xp 00000000 08:07 4198341                    /lib/x86_64-linux-gnu/libresolv-2.19.so
7f00107c4000-7f00109c4000 ---p 00017000 08:07 4198341                    /lib/x86_64-linux-gnu/libresolv-2.19.so
7f00109c4000-7f00109c5000 r--p 00017000 08:07 4198341                    /lib/x86_64-linux-gnu/libresolv-2.19.so
7f00109c5000-7f00109c6000 rw-p 00018000 08:07 4198341                    /lib/x86_64-linux-gnu/libresolv-2.19.so
7f00109c6000-7f00109c8000 rw-p 00000000 00:00 0 
7f00109c8000-7f00109e8000 r-xp 00000000 08:07 4198493                    /lib/x86_64-linux-gnu/libselinux.so.1
7f00109e8000-7f0010be7000 ---p 00020000 08:07 4198493                    /lib/x86_64-linux-gnu/libselinux.so.1
7f0010be7000-7f0010be8000 r--p 0001f000 08:07 4198493                    /lib/x86_64-linux-gnu/libselinux.so.1
7f0010be8000-7f0010be9000 rw-p 00020000 08:07 4198493                    /lib/x86_64-linux-gnu/libselinux.so.1
7f0010be9000-7f0010beb000 rw-p 00000000 00:00 0 
7f0010beb000-7f0010bee000 r-xp 00000000 08:07 1048940                    /usr/lib/x86_64-linux-gnu/libgmodule-2.0.so.0.4002.0
7f0010bee000-7f0010ded000 ---p 00003000 08:07 1048940                    /usr/lib/x86_64-linux-gnu/libgmodule-2.0.so.0.4002.0
7f0010ded000-7f0010dee000 r--p 00002000 08:07 1048940                    /usr/lib/x86_64-linux-gnu/libgmodule-2.0.so.0.4002.0
7f0010dee000-7f0010def000 rw-p 00003000 08:07 1048940                    /usr/lib/x86_64-linux-gnu/libgmodule-2.0.so.0.4002.0
7f0010def000-7f0010ef5000 r-xp 00000000 08:07 4198308                    /lib/x86_64-linux-gnu/libglib-2.0.so.0.4002.0
7f0010ef5000-7f00110f4000 ---p 00106000 08:07 4198308                    /lib/x86_64-linux-gnu/libglib-2.0.so.0.4002.0
7f00110f4000-7f00110f5000 r--p 00105000 08:07 4198308                    /lib/x86_64-linux-gnu/libglib-2.0.so.0.4002.0
7f00110f5000-7f00110f6000 rw-p 00106000 08:07 4198308                    /lib/x86_64-linux-gnu/libglib-2.0.so.0.4002.0
7f00110f6000-7f00110f7000 rw-p 00000000 00:00 0 
7f00110f7000-7f0011146000 r-xp 00000000 08:07 1048958                    /usr/lib/x86_64-linux-gnu/libgobject-2.0.so.0.4002.0
7f0011146000-7f0011346000 ---p 0004f000 08:07 1048958                    /usr/lib/x86_64-linux-gnu/libgobject-2.0.so.0.4002.0
7f0011346000-7f0011347000 r--p 0004f000 08:07 1048958                    /usr/lib/x86_64-linux-gnu/libgobject-2.0.so.0.4002.0
7f0011347000-7f0011348000 rw-p 00050000 08:07 1048958                    /usr/lib/x86_64-linux-gnu/libgobject-2.0.so.0.4002.0
7f0011348000-7f00114b4000 r-xp 00000000 08:07 1048962                    /usr/lib/x86_64-linux-gnu/libgio-2.0.so.0.4002.0
7f00114b4000-7f00116b3000 ---p 0016c000 08:07 1048962                    /usr/lib/x86_64-linux-gnu/libgio-2.0.so.0.4002.0
7f00116b3000-7f00116b7000 r--p 0016b000 08:07 1048962                    /usr/lib/x86_64-linux-gnu/libgio-2.0.so.0.4002.0
7f00116b7000-7f00116b9000 rw-p 0016f000 08:07 1048962                    /usr/lib/x86_64-linux-gnu/libgio-2.0.so.0.4002.0
7f00116b9000-7f00116bb000 rw-p 00000000 00:00 0 
7f00116bb000-7f00116d2000 r-xp 00000000 08:07 3149050                    /usr/lib/jvm/java-7-openjdk-amd64/jre/lib/amd64/libnet.so
7f00116d2000-7f00118d1000 ---p 00017000 08:07 3149050                    /usr/lib/jvm/java-7-openjdk-amd64/jre/lib/amd64/libnet.so
7f00118d1000-7f00118d2000 r--p 00016000 08:07 3149050                    /usr/lib/jvm/java-7-openjdk-amd64/jre/lib/amd64/libnet.so
7f00118d2000-7f00118d3000 rw-p 00017000 08:07 3149050                    /usr/lib/jvm/java-7-openjdk-amd64/jre/lib/amd64/libnet.so
7f00118d3000-7f00118e3000 r-xp 00000000 08:07 3149013                    /usr/lib/jvm/java-7-openjdk-amd64/jre/lib/amd64/libnio.so
7f00118e3000-7f0011ae3000 ---p 00010000 08:07 3149013                    /usr/lib/jvm/java-7-openjdk-amd64/jre/lib/amd64/libnio.so
7f0011ae3000-7f0011ae4000 r--p 00010000 08:07 3149013                    /usr/lib/jvm/java-7-openjdk-amd64/jre/lib/amd64/libnio.so
7f0011ae4000-7f0011ae5000 rw-p 00011000 08:07 3149013                    /usr/lib/jvm/java-7-openjdk-amd64/jre/lib/amd64/libnio.so
7f0011ae5000-7f0011ae8000 ---p 00000000 00:00 0 
7f0011ae8000-7f0011be6000 rw-p 00000000 00:00 0 
7f0011be6000-7f0011be9000 ---p 00000000 00:00 0 
7f0011be9000-7f0011ce7000 rw-p 00000000 00:00 0 
7f0011ce7000-7f0011cea000 ---p 00000000 00:00 0 
7f0011cea000-7f0011de8000 rw-p 00000000 00:00 0 
7f0011de8000-7f0011deb000 ---p 00000000 00:00 0 
7f0011deb000-7f0011ee9000 rw-p 00000000 00:00 0 
7f0011ee9000-7f0011eec000 ---p 00000000 00:00 0 
7f0011eec000-7f0011fea000 rw-p 00000000 00:00 0 
7f0011fea000-7f0011feb000 ---p 00000000 00:00 0 
7f0011feb000-7f00120eb000 rw-p 00000000 00:00 0                          [stack:7627]
7f00120eb000-7f00120ee000 ---p 00000000 00:00 0 
7f00120ee000-7f00121ec000 rw-p 00000000 00:00 0                          [stack:7626]
7f00121ec000-7f00121ef000 ---p 00000000 00:00 0 
7f00121ef000-7f00122ed000 rw-p 00000000 00:00 0                          [stack:7625]
7f00122ed000-7f00122f0000 ---p 00000000 00:00 0 
7f00122f0000-7f00123ee000 rw-p 00000000 00:00 0                          [stack:7624]
7f00123ee000-7f0012ad0000 r--p 00000000 08:07 1056383                    /usr/lib/locale/locale-archive
7f0012ad0000-7f0015000000 rw-p 00000000 00:00 0 
7f0015000000-7f00153d0000 rwxp 00000000 00:00 0 
7f00153d0000-7f001821c000 rw-p 00000000 00:00 0 
7f001821c000-7f001c000000 ---p 00000000 00:00 0 
7f001c062000-7f001c067000 r--s 0004e000 08:07 3149062                    /usr/lib/jvm/java-7-openjdk-amd64/jre/lib/jsse.jar
7f001c067000-7f001c076000 r--s 000df000 08:07 3419560                    /home/sanket/android-sdks/build-tools/23.0.0/lib/dx.jar
7f001c076000-7f001c079000 ---p 00000000 00:00 0 
7f001c079000-7f001c177000 rw-p 00000000 00:00 0                          [stack:7623]
7f001c177000-7f001c17a000 ---p 00000000 00:00 0 
7f001c17a000-7f001c278000 rw-p 00000000 00:00 0                          [stack:7622]
7f001c278000-7f001c27b000 ---p 00000000 00:00 0 
7f001c27b000-7f001c379000 rw-p 00000000 00:00 0                          [stack:7621]
7f001c379000-7f001c37a000 ---p 00000000 00:00 0 
7f001c37a000-7f001d477000 rw-p 00000000 00:00 0                          [stack:7620]
7f001d477000-7f001d629000 r--s 01d2e000 08:07 3149006                    /usr/lib/jvm/java-7-openjdk-amd64/jre/lib/rt.jar
7f001d629000-7f001d975000 rw-p 00000000 00:00 0 
7f001d975000-7f001d976000 ---p 00000000 00:00 0 
7f001d976000-7f001da76000 rw-p 00000000 00:00 0                          [stack:7619]
7f001da76000-7f001da77000 ---p 00000000 00:00 0 
7f001da77000-7f001db77000 rw-p 00000000 00:00 0                          [stack:7618]
7f001db77000-7f001db78000 ---p 00000000 00:00 0 
7f001db78000-7f001dc78000 rw-p 00000000 00:00 0                          [stack:7617]
7f001dc78000-7f001dc79000 ---p 00000000 00:00 0 
7f001dc79000-7f001dd84000 rw-p 00000000 00:00 0                          [stack:7616]
7f001dd84000-7f001ddcc000 rw-p 00000000 00:00 0 
7f001ddcc000-7f001dde0000 rw-p 00000000 00:00 0 
7f001dde0000-7f001df22000 rw-p 00000000 00:00 0 
7f001df22000-7f001df2d000 rw-p 00000000 00:00 0 
7f001df2d000-7f001df75000 rw-p 00000000 00:00 0 
7f001df75000-7f001df89000 rw-p 00000000 00:00 0 
7f001df89000-7f001e0ca000 rw-p 00000000 00:00 0 
7f001e0ca000-7f001e117000 rw-p 00000000 00:00 0 
7f001e117000-7f001e175000 rw-p 00000000 00:00 0 
7f001e175000-7f001e176000 rw-p 00000000 00:00 0 
7f001e176000-7f001e17e000 r-xp 00000000 08:07 3149018                    /usr/lib/jvm/java-7-openjdk-amd64/jre/lib/amd64/libzip.so
7f001e17e000-7f001e37d000 ---p 00008000 08:07 3149018                    /usr/lib/jvm/java-7-openjdk-amd64/jre/lib/amd64/libzip.so
7f001e37d000-7f001e37e000 r--p 00007000 08:07 3149018                    /usr/lib/jvm/java-7-openjdk-amd64/jre/lib/amd64/libzip.so
7f001e37e000-7f001e37f000 rw-p 00008000 08:07 3149018                    /usr/lib/jvm/java-7-openjdk-amd64/jre/lib/amd64/libzip.so
7f001e37f000-7f001e38a000 r-xp 00000000 08:07 4198440                    /lib/x86_64-linux-gnu/libnss_files-2.19.so
7f001e38a000-7f001e589000 ---p 0000b000 08:07 4198440                    /lib/x86_64-linux-gnu/libnss_files-2.19.so
7f001e589000-7f001e58a000 r--p 0000a000 08:07 4198440                    /lib/x86_64-linux-gnu/libnss_files-2.19.so
7f001e58a000-7f001e58b000 rw-p 0000b000 08:07 4198440                    /lib/x86_64-linux-gnu/libnss_files-2.19.so
7f001e58b000-7f001e596000 r-xp 00000000 08:07 4200064                    /lib/x86_64-linux-gnu/libnss_nis-2.19.so
7f001e596000-7f001e795000 ---p 0000b000 08:07 4200064                    /lib/x86_64-linux-gnu/libnss_nis-2.19.so
7f001e795000-7f001e796000 r--p 0000a000 08:07 4200064                    /lib/x86_64-linux-gnu/libnss_nis-2.19.so
7f001e796000-7f001e797000 rw-p 0000b000 08:07 4200064                    /lib/x86_64-linux-gnu/libnss_nis-2.19.so
7f001e797000-7f001e7ae000 r-xp 00000000 08:07 4199530                    /lib/x86_64-linux-gnu/libnsl-2.19.so
7f001e7ae000-7f001e9ad000 ---p 00017000 08:07 4199530                    /lib/x86_64-linux-gnu/libnsl-2.19.so
7f001e9ad000-7f001e9ae000 r--p 00016000 08:07 4199530                    /lib/x86_64-linux-gnu/libnsl-2.19.so
7f001e9ae000-7f001e9af000 rw-p 00017000 08:07 4199530                    /lib/x86_64-linux-gnu/libnsl-2.19.so
7f001e9af000-7f001e9b1000 rw-p 00000000 00:00 0 
7f001e9b1000-7f001e9ba000 r-xp 00000000 08:07 4198482                    /lib/x86_64-linux-gnu/libnss_compat-2.19.so
7f001e9ba000-7f001ebb9000 ---p 00009000 08:07 4198482                    /lib/x86_64-linux-gnu/libnss_compat-2.19.so
7f001ebb9000-7f001ebba000 r--p 00008000 08:07 4198482                    /lib/x86_64-linux-gnu/libnss_compat-2.19.so
7f001ebba000-7f001ebbb000 rw-p 00009000 08:07 4198482                    /lib/x86_64-linux-gnu/libnss_compat-2.19.so
7f001ebbb000-7f001ebe6000 r-xp 00000000 08:07 3149029                    /usr/lib/jvm/java-7-openjdk-amd64/jre/lib/amd64/libjava.so
7f001ebe6000-7f001ede6000 ---p 0002b000 08:07 3149029                    /usr/lib/jvm/java-7-openjdk-amd64/jre/lib/amd64/libjava.so
7f001ede6000-7f001ede7000 r--p 0002b000 08:07 3149029                    /usr/lib/jvm/java-7-openjdk-amd64/jre/lib/amd64/libjava.so
7f001ede7000-7f001ede9000 rw-p 0002c000 08:07 3149029                    /usr/lib/jvm/java-7-openjdk-amd64/jre/lib/amd64/libjava.so
7f001ede9000-7f001edf9000 r-xp 00000000 08:07 3149045                    /usr/lib/jvm/java-7-openjdk-amd64/jre/lib/amd64/libverify.so
7f001edf9000-7f001eff8000 ---p 00010000 08:07 3149045                    /usr/lib/jvm/java-7-openjdk-amd64/jre/lib/amd64/libverify.so
7f001eff8000-7f001effa000 r--p 0000f000 08:07 3149045                    /usr/lib/jvm/java-7-openjdk-amd64/jre/lib/amd64/libverify.so
7f001effa000-7f001effb000 rw-p 00011000 08:07 3149045                    /usr/lib/jvm/java-7-openjdk-amd64/jre/lib/amd64/libverify.so
7f001effb000-7f001f002000 r-xp 00000000 08:07 4200061                    /lib/x86_64-linux-gnu/librt-2.19.so
7f001f002000-7f001f201000 ---p 00007000 08:07 4200061                    /lib/x86_64-linux-gnu/librt-2.19.so
7f001f201000-7f001f202000 r--p 00006000 08:07 4200061                    /lib/x86_64-linux-gnu/librt-2.19.so
7f001f202000-7f001f203000 rw-p 00007000 08:07 4200061                    /lib/x86_64-linux-gnu/librt-2.19.so
7f001f203000-7f001f219000 r-xp 00000000 08:07 4223721                    /lib/x86_64-linux-gnu/libgcc_s.so.1
7f001f219000-7f001f418000 ---p 00016000 08:07 4223721                    /lib/x86_64-linux-gnu/libgcc_s.so.1
7f001f418000-7f001f419000 rw-p 00015000 08:07 4223721                    /lib/x86_64-linux-gnu/libgcc_s.so.1
7f001f419000-7f001f51e000 r-xp 00000000 08:07 4198343                    /lib/x86_64-linux-gnu/libm-2.19.so
7f001f51e000-7f001f71d000 ---p 00105000 08:07 4198343                    /lib/x86_64-linux-gnu/libm-2.19.so
7f001f71d000-7f001f71e000 r--p 00104000 08:07 4198343                    /lib/x86_64-linux-gnu/libm-2.19.so
7f001f71e000-7f001f71f000 rw-p 00105000 08:07 4198343                    /lib/x86_64-linux-gnu/libm-2.19.so
7f001f71f000-7f001f805000 r-xp 00000000 08:07 1052838                    /usr/lib/x86_64-linux-gnu/libstdc++.so.6.0.19
7f001f805000-7f001fa04000 ---p 000e6000 08:07 1052838                    /usr/lib/x86_64-linux-gnu/libstdc++.so.6.0.19
7f001fa04000-7f001fa0c000 r--p 000e5000 08:07 1052838                    /usr/lib/x86_64-linux-gnu/libstdc++.so.6.0.19
7f001fa0c000-7f001fa0e000 rw-p 000ed000 08:07 1052838                    /usr/lib/x86_64-linux-gnu/libstdc++.so.6.0.19
7f001fa0e000-7f001fa23000 rw-p 00000000 00:00 0 
7f001fa23000-7f0020547000 r-xp 00000000 08:07 3149035                    /usr/lib/jvm/java-7-openjdk-amd64/jre/lib/amd64/server/libjvm.so
7f0020547000-7f0020747000 ---p 00b24000 08:07 3149035                    /usr/lib/jvm/java-7-openjdk-amd64/jre/lib/amd64/server/libjvm.so
7f0020747000-7f00207e1000 r--p 00b24000 08:07 3149035                    /usr/lib/jvm/java-7-openjdk-amd64/jre/lib/amd64/server/libjvm.so
7f00207e1000-7f0020804000 rw-p 00bbe000 08:07 3149035                    /usr/lib/jvm/java-7-openjdk-amd64/jre/lib/amd64/server/libjvm.so
7f0020804000-7f0020832000 rw-p 00000000 00:00 0 
7f0020832000-7f002084a000 r-xp 00000000 08:07 4198526                    /lib/x86_64-linux-gnu/libz.so.1.2.8
7f002084a000-7f0020a49000 ---p 00018000 08:07 4198526                    /lib/x86_64-linux-gnu/libz.so.1.2.8
7f0020a49000-7f0020a4a000 r--p 00017000 08:07 4198526                    /lib/x86_64-linux-gnu/libz.so.1.2.8
7f0020a4a000-7f0020a4b000 rw-p 00018000 08:07 4198526                    /lib/x86_64-linux-gnu/libz.so.1.2.8
7f0020a4b000-7f0020a64000 r-xp 00000000 08:07 4200059                    /lib/x86_64-linux-gnu/libpthread-2.19.so
7f0020a64000-7f0020c63000 ---p 00019000 08:07 4200059                    /lib/x86_64-linux-gnu/libpthread-2.19.so
7f0020c63000-7f0020c64000 r--p 00018000 08:07 4200059                    /lib/x86_64-linux-gnu/libpthread-2.19.so
7f0020c64000-7f0020c65000 rw-p 00019000 08:07 4200059                    /lib/x86_64-linux-gnu/libpthread-2.19.so
7f0020c65000-7f0020c69000 rw-p 00000000 00:00 0 
7f0020c69000-7f0020c6c000 r-xp 00000000 08:07 4198451                    /lib/x86_64-linux-gnu/libdl-2.19.so
7f0020c6c000-7f0020e6b000 ---p 00003000 08:07 4198451                    /lib/x86_64-linux-gnu/libdl-2.19.so
7f0020e6b000-7f0020e6c000 r--p 00002000 08:07 4198451                    /lib/x86_64-linux-gnu/libdl-2.19.so
7f0020e6c000-7f0020e6d000 rw-p 00003000 08:07 4198451                    /lib/x86_64-linux-gnu/libdl-2.19.so
7f0020e6d000-7f0021028000 r-xp 00000000 08:07 4200058                    /lib/x86_64-linux-gnu/libc-2.19.so
7f0021028000-7f0021227000 ---p 001bb000 08:07 4200058                    /lib/x86_64-linux-gnu/libc-2.19.so
7f0021227000-7f002122b000 r--p 001ba000 08:07 4200058                    /lib/x86_64-linux-gnu/libc-2.19.so
7f002122b000-7f002122d000 rw-p 001be000 08:07 4200058                    /lib/x86_64-linux-gnu/libc-2.19.so
7f002122d000-7f0021232000 rw-p 00000000 00:00 0 
7f0021232000-7f002123f000 r-xp 00000000 08:07 3149046                    /usr/lib/jvm/java-7-openjdk-amd64/jre/lib/amd64/jli/libjli.so
7f002123f000-7f002143e000 ---p 0000d000 08:07 3149046                    /usr/lib/jvm/java-7-openjdk-amd64/jre/lib/amd64/jli/libjli.so
7f002143e000-7f002143f000 r--p 0000c000 08:07 3149046                    /usr/lib/jvm/java-7-openjdk-amd64/jre/lib/amd64/jli/libjli.so
7f002143f000-7f0021440000 rw-p 0000d000 08:07 3149046                    /usr/lib/jvm/java-7-openjdk-amd64/jre/lib/amd64/jli/libjli.so
7f0021440000-7f0021463000 r-xp 00000000 08:07 4200046                    /lib/x86_64-linux-gnu/ld-2.19.so
7f0021463000-7f002148c000 rw-p 00000000 00:00 0 
7f002148c000-7f002153c000 rw-p 00000000 00:00 0 
7f002153c000-7f002153f000 ---p 00000000 00:00 0 
7f002153f000-7f0021642000 rw-p 00000000 00:00 0                          [stack:7615]
7f0021642000-7f0021643000 r--s 00002000 08:07 3149003                    /usr/lib/jvm/java-7-openjdk-amd64/jre/lib/ext/dnsns.jar
7f0021643000-7f0021647000 r--s 00085000 08:07 3148999                    /usr/lib/jvm/java-7-openjdk-amd64/jre/lib/ext/localedata.jar
7f0021647000-7f0021649000 r--s 00012000 08:07 3148998                    /usr/lib/jvm/java-7-openjdk-amd64/jre/lib/ext/zipfs.jar
7f0021649000-7f002164d000 r--s 0003c000 08:07 3149002                    /usr/lib/jvm/java-7-openjdk-amd64/jre/lib/ext/sunpkcs11.jar
7f002164d000-7f002164f000 r--s 00006000 08:07 1456370                    /usr/share/java/java-atk-wrapper.jar
7f002164f000-7f0021653000 r--s 00034000 08:07 3149001                    /usr/lib/jvm/java-7-openjdk-amd64/jre/lib/ext/sunjce_provider.jar
7f0021653000-7f0021656000 r--s 0000f000 08:07 3149000                    /usr/lib/jvm/java-7-openjdk-amd64/jre/lib/ext/icedtea-sound.jar
7f0021656000-7f002165e000 rw-s 00000000 08:07 535227                     /tmp/hsperfdata_sanket/7609
7f002165e000-7f002165f000 rw-p 00000000 00:00 0 
7f002165f000-7f0021660000 ---p 00000000 00:00 0 
7f0021660000-7f0021662000 rw-p 00000000 00:00 0 
7f0021662000-7f0021663000 r--p 00022000 08:07 4200046                    /lib/x86_64-linux-gnu/ld-2.19.so
7f0021663000-7f0021664000 rw-p 00023000 08:07 4200046                    /lib/x86_64-linux-gnu/ld-2.19.so
7f0021664000-7f0021665000 rw-p 00000000 00:00 0 
7fffc6b9e000-7fffc6bc0000 rw-p 00000000 00:00 0                          [stack]
7fffc6bde000-7fffc6be0000 r-xp 00000000 00:00 0                          [vdso]
ffffffffff600000-ffffffffff601000 r-xp 00000000 00:00 0                  [vsyscall]

VM Arguments:
jvm_args: -Xmx1024M -Dfile.encoding=UTF-8 -Duser.country=US -Duser.language=en -Duser.variant 
java_command: com.android.dx.command.Main --dex --num-threads=4 --output /home/sanket/lokavidyaapp/app/build/intermediates/dex/debug /home/sanket/lokavidyaapp/app/build/intermediates/classes/debug /home/sanket/lokavidyaapp/app/build/intermediates/pre-dexed/debug/javax.inject-1-0b64f9413fa3755ee930a0fd931b6f28fcfd1ba8.jar /home/sanket/lokavidyaapp/app/build/intermediates/pre-dexed/debug/support-annotations-23.0.0-41a437c02f7a6970c95c376ed6bdd70acb20bd01.jar /home/sanket/lokavidyaapp/app/build/intermediates/pre-dexed/debug/javawriter-2.5.0-3a8d508bc10837ab8cbcf85fe449bc3dec7561df.jar /home/sanket/lokavidyaapp/app/build/intermediates/pre-dexed/debug/classes-9946c7561ec486b51eee390f106f62bd579179b7.jar /home/sanket/lokavidyaapp/app/build/intermediates/pre-dexed/debug/classes-933ffedcad5cb31d6ab3ccf7ef238196230202d9.jar /home/sanket/lokavidyaapp/app/build/intermediates/pre-dexed/debug/classes-3e3f061d8e3b328eb2bc8ba78f255a7e21c5d841.jar /home/sanket/lokavidyaapp/app/build/intermediates/pre-dexed/debug/okhttp-urlconnection-2.2.0-976743ddad9a3ef9722483664b09ec90ad5f909c.jar /home/sanket/lokavidyaapp/app/build/intermediates/pre-dexed/debug/butterknife-5.1.2-b3d4f342f7177b4c045966065578a25e60c3253d.jar /home/sanket/lokavidyaapp/app/build/intermediates/pre-dexed/debug/dagger-1.2.2-535aaddd739252e164b51798e401f84fb8e1be12.jar /home/sanket/lokavidyaapp/app/build/intermediates/pre-dexed/debug/classes-5c544c235141166f4ac169edb86c17617b49dabd.jar /home/sanket/lokavidyaapp/app/build/intermediates/pre-dexed/debug/okio-1.3.0-0142cacad9fb31a4c96c9dd698abb91efe6d30a0.jar /home/sanket/lokavidyaapp/app/build/intermediates/pre-dexed/debug/dagger-compiler-1.2.2-7be9a82b60fc011b33e043a701870302c8455329.jar /home/sanket/lokavidyaapp/app/build/intermediates/pre-dexed/debug/classes-19aa64ff8b564cc1eca1761211721def1ec26b92.jar /home/sanket/lokavidyaapp/app/build/intermediates/pre-dexed/debug/picasso-2.4.0-49da5b14e642f5132d25b7fb3fef55bb03b48420.jar /home/sanket/lokavidyaapp/app/build/interme
Launcher Type: SUN_STANDARD

Environment Variables:
PATH=/home/sanket/bin:/usr/local/sbin:/usr/local/bin:/usr/sbin:/usr/bin:/sbin:/bin:/usr/games:/usr/local/games
SHELL=/bin/bash
DISPLAY=:0

Signal Handlers:
SIGSEGV: [libjvm.so+0x9548f0], sa_mask[0]=0x7ffbfeff, sa_flags=0x10000004
SIGBUS: [libjvm.so+0x9548f0], sa_mask[0]=0x7ffbfeff, sa_flags=0x10000004
SIGFPE: [libjvm.so+0x7cb0b0], sa_mask[0]=0x7ffbfeff, sa_flags=0x10000004
SIGPIPE: [libjvm.so+0x7cb0b0], sa_mask[0]=0x7ffbfeff, sa_flags=0x10000004
SIGXFSZ: [libjvm.so+0x7cb0b0], sa_mask[0]=0x7ffbfeff, sa_flags=0x10000004
SIGILL: [libjvm.so+0x7cb0b0], sa_mask[0]=0x7ffbfeff, sa_flags=0x10000004
SIGUSR1: SIG_DFL, sa_mask[0]=0x00000000, sa_flags=0x00000000
SIGUSR2: [libjvm.so+0x7caf50], sa_mask[0]=0x00000004, sa_flags=0x10000004
SIGHUP: [libjvm.so+0x7cb130], sa_mask[0]=0x7ffbfeff, sa_flags=0x10000004
SIGINT: [libjvm.so+0x7cb130], sa_mask[0]=0x7ffbfeff, sa_flags=0x10000004
SIGTERM: [libjvm.so+0x7cb130], sa_mask[0]=0x7ffbfeff, sa_flags=0x10000004
SIGQUIT: [libjvm.so+0x7cb130], sa_mask[0]=0x7ffbfeff, sa_flags=0x10000004
SIGTRAP: SIG_DFL, sa_mask[0]=0x00000000, sa_flags=0x00000000


---------------  S Y S T E M  ---------------

OS:Ubuntu 14.04 (trusty)
uname:Linux 3.13.0-76-generic #120-Ubuntu SMP Mon Jan 18 15:59:10 UTC 2016 x86_64
libc:glibc 2.19 NPTL 2.19 
rlimit: STACK 8192k, CORE 0k, NPROC 30418, NOFILE 4096, AS infinity
load average:1.11 0.75 0.71

/proc/meminfo:
MemTotal:        3950084 kB
MemFree:          127772 kB
Buffers:            1404 kB
Cached:           357244 kB
SwapCached:            0 kB
Active:          3324132 kB
Inactive:         339456 kB
Active(anon):    3308380 kB
Inactive(anon):   322188 kB
Active(file):      15752 kB
Inactive(file):    17268 kB
Unevictable:          32 kB
Mlocked:              32 kB
SwapTotal:             0 kB
SwapFree:              0 kB
Dirty:              3984 kB
Writeback:             0 kB
AnonPages:       3305528 kB
Mapped:            89948 kB
Shmem:            325012 kB
Slab:              64160 kB
SReclaimable:      30684 kB
SUnreclaim:        33476 kB
KernelStack:        4520 kB
PageTables:        33836 kB
NFS_Unstable:          0 kB
Bounce:                0 kB
WritebackTmp:          0 kB
CommitLimit:     1975040 kB
Committed_AS:    7344396 kB
VmallocTotal:   34359738367 kB
VmallocUsed:      348256 kB
VmallocChunk:   34359363452 kB
HardwareCorrupted:     0 kB
AnonHugePages:   1103872 kB
HugePages_Total:       0
HugePages_Free:        0
HugePages_Rsvd:        0
HugePages_Surp:        0
Hugepagesize:       2048 kB
DirectMap4k:       92540 kB
DirectMap2M:     2955264 kB
DirectMap1G:     1048576 kB


CPU:total 4 (2 cores per cpu, 2 threads per core) family 6 model 69 stepping 1, cmov, cx8, fxsr, mmx, sse, sse2, sse3, ssse3, sse4.1, sse4.2, popcnt, avx, avx2, aes, erms, ht, tsc, tscinvbit

/proc/cpuinfo:
processor	: 0
vendor_id	: GenuineIntel
cpu family	: 6
model		: 69
model name	: Intel(R) Core(TM) i5-4210U CPU @ 1.70GHz
stepping	: 1
microcode	: 0x17
cpu MHz		: 1700.000
cache size	: 3072 KB
physical id	: 0
siblings	: 4
core id		: 0
cpu cores	: 2
apicid		: 0
initial apicid	: 0
fpu		: yes
fpu_exception	: yes
cpuid level	: 13
wp		: yes
flags		: fpu vme de pse tsc msr pae mce cx8 apic sep mtrr pge mca cmov pat pse36 clflush dts acpi mmx fxsr sse sse2 ss ht tm pbe syscall nx pdpe1gb rdtscp lm constant_tsc arch_perfmon pebs bts rep_good nopl xtopology nonstop_tsc aperfmperf eagerfpu pni pclmulqdq dtes64 monitor ds_cpl vmx est tm2 ssse3 fma cx16 xtpr pdcm pcid sse4_1 sse4_2 movbe popcnt tsc_deadline_timer aes xsave avx f16c rdrand lahf_lm abm ida arat epb xsaveopt pln pts dtherm tpr_shadow vnmi flexpriority ept vpid fsgsbase tsc_adjust bmi1 avx2 smep bmi2 erms invpcid
bogomips	: 3392.24
clflush size	: 64
cache_alignment	: 64
address sizes	: 39 bits physical, 48 bits virtual
power management:

processor	: 1
vendor_id	: GenuineIntel
cpu family	: 6
model		: 69
model name	: Intel(R) Core(TM) i5-4210U CPU @ 1.70GHz
stepping	: 1
microcode	: 0x17
cpu MHz		: 782.000
cache size	: 3072 KB
physical id	: 0
siblings	: 4
core id		: 1
cpu cores	: 2
apicid		: 2
initial apicid	: 2
fpu		: yes
fpu_exception	: yes
cpuid level	: 13
wp		: yes
flags		: fpu vme de pse tsc msr pae mce cx8 apic sep mtrr pge mca cmov pat pse36 clflush dts acpi mmx fxsr sse sse2 ss ht tm pbe syscall nx pdpe1gb rdtscp lm constant_tsc arch_perfmon pebs bts rep_good nopl xtopology nonstop_tsc aperfmperf eagerfpu pni pclmulqdq dtes64 monitor ds_cpl vmx est tm2 ssse3 fma cx16 xtpr pdcm pcid sse4_1 sse4_2 movbe popcnt tsc_deadline_timer aes xsave avx f16c rdrand lahf_lm abm ida arat epb xsaveopt pln pts dtherm tpr_shadow vnmi flexpriority ept vpid fsgsbase tsc_adjust bmi1 avx2 smep bmi2 erms invpcid
bogomips	: 3392.24
clflush size	: 64
cache_alignment	: 64
address sizes	: 39 bits physical, 48 bits virtual
power management:

processor	: 2
vendor_id	: GenuineIntel
cpu family	: 6
model		: 69
model name	: Intel(R) Core(TM) i5-4210U CPU @ 1.70GHz
stepping	: 1
microcode	: 0x17
cpu MHz		: 1700.000
cache size	: 3072 KB
physical id	: 0
siblings	: 4
core id		: 0
cpu cores	: 2
apicid		: 1
initial apicid	: 1
fpu		: yes
fpu_exception	: yes
cpuid level	: 13
wp		: yes
flags		: fpu vme de pse tsc msr pae mce cx8 apic sep mtrr pge mca cmov pat pse36 clflush dts acpi mmx fxsr sse sse2 ss ht tm pbe syscall nx pdpe1gb rdtscp lm constant_tsc arch_perfmon pebs bts rep_good nopl xtopology nonstop_tsc aperfmperf eagerfpu pni pclmulqdq dtes64 monitor ds_cpl vmx est tm2 ssse3 fma cx16 xtpr pdcm pcid sse4_1 sse4_2 movbe popcnt tsc_deadline_timer aes xsave avx f16c rdrand lahf_lm abm ida arat epb xsaveopt pln pts dtherm tpr_shadow vnmi flexpriority ept vpid fsgsbase tsc_adjust bmi1 avx2 smep bmi2 erms invpcid
bogomips	: 3392.24
clflush size	: 64
cache_alignment	: 64
address sizes	: 39 bits physical, 48 bits virtual
power management:

processor	: 3
vendor_id	: GenuineIntel
cpu family	: 6
model		: 69
model name	: Intel(R) Core(TM) i5-4210U CPU @ 1.70GHz
stepping	: 1
microcode	: 0x17
cpu MHz		: 782.000
cache size	: 3072 KB
physical id	: 0
siblings	: 4
core id		: 1
cpu cores	: 2
apicid		: 3
initial apicid	: 3
fpu		: yes
fpu_exception	: yes
cpuid level	: 13
wp		: yes
flags		: fpu vme de pse tsc msr pae mce cx8 apic sep mtrr pge mca cmov pat pse36 clflush dts acpi mmx fxsr sse sse2 ss ht tm pbe syscall nx pdpe1gb rdtscp lm constant_tsc arch_perfmon pebs bts rep_good nopl xtopology nonstop_tsc aperfmperf eagerfpu pni pclmulqdq dtes64 monitor ds_cpl vmx est tm2 ssse3 fma cx16 xtpr pdcm pcid sse4_1 sse4_2 movbe popcnt tsc_deadline_timer aes xsave avx f16c rdrand lahf_lm abm ida arat epb xsaveopt pln pts dtherm tpr_shadow vnmi flexpriority ept vpid fsgsbase tsc_adjust bmi1 avx2 smep bmi2 erms invpcid
bogomips	: 3392.24
clflush size	: 64
cache_alignment	: 64
address sizes	: 39 bits physical, 48 bits virtual
power management:



Memory: 4k page, physical 3950084k(127772k free), swap 0k(0k free)

vm_info: OpenJDK 64-Bit Server VM (24.91-b01) for linux-amd64 JRE (1.7.0_91-b02), built on Nov 19 2015 06:14:37 by "buildd" with gcc 4.8.2

time: Wed Feb  3 03:05:52 2016
elapsed time: 9 seconds

